%YAML 1.1
%TAG !u! tag:unity3d.com,2011:
--- !u!319 &101100000
AvatarMask:
  m_ObjectHideFlags: 0
  m_CorrespondingSourceObject: {fileID: 0}
  m_PrefabInstance: {fileID: 0}
  m_PrefabAsset: {fileID: 0}
  m_Name: Shoot
  m_Mask: 01000000010000000100000001000000010000000100000001000000010000000100000001000000010000000100000001000000
  m_Elements:
  - m_Path: 
    m_Weight: 1
  - m_Path: Dummy001
    m_Weight: 0
  - m_Path: Dummy001/Bip001
    m_Weight: 0
  - m_Path: Dummy001/Bip001/Bip001 Pelvis
    m_Weight: 0
  - m_Path: Dummy001/Bip001/Bip001 Pelvis/Bip001 Spine
    m_Weight: 0
  - m_Path: Dummy001/Bip001/Bip001 Pelvis/Bip001 Spine/Bip001 L Thigh
    m_Weight: 0
  - m_Path: Dummy001/Bip001/Bip001 Pelvis/Bip001 Spine/Bip001 L Thigh/Bip001 L Calf
    m_Weight: 0
  - m_Path: Dummy001/Bip001/Bip001 Pelvis/Bip001 Spine/Bip001 L Thigh/Bip001 L Calf/Bip001
      L Foot
    m_Weight: 0
  - m_Path: Dummy001/Bip001/Bip001 Pelvis/Bip001 Spine/Bip001 L Thigh/Bip001 L Calf/Bip001
      L Foot/Bip001 L Toe0
    m_Weight: 0
  - m_Path: Dummy001/Bip001/Bip001 Pelvis/Bip001 Spine/Bip001 L Thigh/Bip001 L Calf/Bip001
      L Foot/Bip001 L Toe1
    m_Weight: 0
  - m_Path: Dummy001/Bip001/Bip001 Pelvis/Bip001 Spine/Bip001 L Thigh/Bip001 L Calf/Bip001
      L Foot/Bip001 L Toe2
    m_Weight: 0
  - m_Path: Dummy001/Bip001/Bip001 Pelvis/Bip001 Spine/Bip001 L Thigh/Bip001 L Calf/Bip001
      L Foot/Bip001 L Toe3
    m_Weight: 0
  - m_Path: Dummy001/Bip001/Bip001 Pelvis/Bip001 Spine/Bip001 L Thigh/Bip001 thrust_l
    m_Weight: 0
  - m_Path: Dummy001/Bip001/Bip001 Pelvis/Bip001 Spine/Bip001 R Thigh
    m_Weight: 0
  - m_Path: Dummy001/Bip001/Bip001 Pelvis/Bip001 Spine/Bip001 R Thigh/Bip001 R Calf
    m_Weight: 0
  - m_Path: Dummy001/Bip001/Bip001 Pelvis/Bip001 Spine/Bip001 R Thigh/Bip001 R Calf/Bip001
      R Foot
    m_Weight: 0
  - m_Path: Dummy001/Bip001/Bip001 Pelvis/Bip001 Spine/Bip001 R Thigh/Bip001 R Calf/Bip001
      R Foot/Bip001 R Toe0
    m_Weight: 0
  - m_Path: Dummy001/Bip001/Bip001 Pelvis/Bip001 Spine/Bip001 R Thigh/Bip001 R Calf/Bip001
      R Foot/Bip001 R Toe1
    m_Weight: 0
  - m_Path: Dummy001/Bip001/Bip001 Pelvis/Bip001 Spine/Bip001 R Thigh/Bip001 R Calf/Bip001
      R Foot/Bip001 R Toe2
    m_Weight: 0
  - m_Path: Dummy001/Bip001/Bip001 Pelvis/Bip001 Spine/Bip001 R Thigh/Bip001 R Calf/Bip001
      R Foot/Bip001 R Toe3
    m_Weight: 0
  - m_Path: Dummy001/Bip001/Bip001 Pelvis/Bip001 Spine/Bip001 R Thigh/Bip001 thrust_r
    m_Weight: 0
  - m_Path: Dummy001/Bip001/Bip001 Pelvis/Bip001 Spine/Bip001 Spine1
    m_Weight: 0
  - m_Path: Dummy001/Bip001/Bip001 Pelvis/Bip001 Spine/Bip001 Spine1/Bip001 Spine2
    m_Weight: 0
  - m_Path: Dummy001/Bip001/Bip001 Pelvis/Bip001 Spine/Bip001 Spine1/Bip001 Spine2/Bip001
      back_fan
    m_Weight: 0
  - m_Path: Dummy001/Bip001/Bip001 Pelvis/Bip001 Spine/Bip001 Spine1/Bip001 Spine2/Bip001
      head
    m_Weight: 0
  - m_Path: Dummy001/Bip001/Bip001 Pelvis/Bip001 Spine/Bip001 Spine1/Bip001 Spine2/Bip001
      L Clavicle
    m_Weight: 0
  - m_Path: Dummy001/Bip001/Bip001 Pelvis/Bip001 Spine/Bip001 Spine1/Bip001 Spine2/Bip001
      L Clavicle/Bip001 L UpperArm
    m_Weight: 1
  - m_Path: Dummy001/Bip001/Bip001 Pelvis/Bip001 Spine/Bip001 Spine1/Bip001 Spine2/Bip001
      L Clavicle/Bip001 L UpperArm/Bip001 L Forearm
    m_Weight: 1
  - m_Path: Dummy001/Bip001/Bip001 Pelvis/Bip001 Spine/Bip001 Spine1/Bip001 Spine2/Bip001
      L Clavicle/Bip001 L UpperArm/Bip001 L Forearm/Bip001 L Hand
    m_Weight: 1
  - m_Path: Dummy001/Bip001/Bip001 Pelvis/Bip001 Spine/Bip001 Spine1/Bip001 Spine2/Bip001
      L Clavicle/Bip001 L UpperArm/Bip001 L Forearm/Bip001 L Hand/Bip001 L Finger0
    m_Weight: 1
  - m_Path: Dummy001/Bip001/Bip001 Pelvis/Bip001 Spine/Bip001 Spine1/Bip001 Spine2/Bip001
      L Clavicle/Bip001 L UpperArm/Bip001 L Forearm/Bip001 L Hand/Bip001 L Finger0/Bip001
      L Finger01
    m_Weight: 1
  - m_Path: Dummy001/Bip001/Bip001 Pelvis/Bip001 Spine/Bip001 Spine1/Bip001 Spine2/Bip001
      L Clavicle/Bip001 L UpperArm/Bip001 L Forearm/Bip001 L Hand/Bip001 L Finger1
    m_Weight: 1
  - m_Path: Dummy001/Bip001/Bip001 Pelvis/Bip001 Spine/Bip001 Spine1/Bip001 Spine2/Bip001
      L Clavicle/Bip001 L UpperArm/Bip001 L Forearm/Bip001 L Hand/Bip001 L Finger1/Bip001
      L Finger11
    m_Weight: 1
  - m_Path: Dummy001/Bip001/Bip001 Pelvis/Bip001 Spine/Bip001 Spine1/Bip001 Spine2/Bip001
      L Clavicle/Bip001 L UpperArm/Bip001 L Forearm/Bip001 L Hand/Bip001 L Finger2
    m_Weight: 1
  - m_Path: Dummy001/Bip001/Bip001 Pelvis/Bip001 Spine/Bip001 Spine1/Bip001 Spine2/Bip001
      L Clavicle/Bip001 L UpperArm/Bip001 L Forearm/Bip001 L Hand/Bip001 L Finger2/Bip001
      L Finger21
    m_Weight: 1
  - m_Path: Dummy001/Bip001/Bip001 Pelvis/Bip001 Spine/Bip001 Spine1/Bip001 Spine2/Bip001
      Neck
    m_Weight: 0
  - m_Path: Dummy001/Bip001/Bip001 Pelvis/Bip001 Spine/Bip001 Spine1/Bip001 Spine2/Bip001
      Neck/Bip001 Head
    m_Weight: 0
  - m_Path: Dummy001/Bip001/Bip001 Pelvis/Bip001 Spine/Bip001 Spine1/Bip001 Spine2/Bip001
      R Clavicle
    m_Weight: 0
  - m_Path: Dummy001/Bip001/Bip001 Pelvis/Bip001 Spine/Bip001 Spine1/Bip001 Spine2/Bip001
      R Clavicle/Bip001 R UpperArm
    m_Weight: 0
  - m_Path: Dummy001/Bip001/Bip001 Pelvis/Bip001 Spine/Bip001 Spine1/Bip001 Spine2/Bip001
      R Clavicle/Bip001 R UpperArm/Bip001 R Forearm
    m_Weight: 0
  - m_Path: Dummy001/Bip001/Bip001 Pelvis/Bip001 Spine/Bip001 Spine1/Bip001 Spine2/Bip001
      R Clavicle/Bip001 R UpperArm/Bip001 R Forearm/Bip001 R Hand
    m_Weight: 0
  - m_Path: Dummy001/Bip001/Bip001 Pelvis/Bip001 Spine/Bip001 Spine1/Bip001 Spine2/Bip001
      R Clavicle/Bip001 R UpperArm/Bip001 R Forearm/Bip001 R Hand/Bip001 R Finger0
    m_Weight: 0
  - m_Path: Dummy001/Bip001/Bip001 Pelvis/Bip001 Spine/Bip001 Spine1/Bip001 Spine2/Bip001
      R Clavicle/Bip001 R UpperArm/Bip001 R Forearm/Bip001 R Hand/Bip001 R Finger0/Bip001
      R Finger01
    m_Weight: 0
  - m_Path: Dummy001/Bip001/Bip001 Pelvis/Bip001 Spine/Bip001 Spine1/Bip001 Spine2/Bip001
      R Clavicle/Bip001 R UpperArm/Bip001 R Forearm/Bip001 R Hand/Bip001 R Finger1
    m_Weight: 0
  - m_Path: Dummy001/Bip001/Bip001 Pelvis/Bip001 Spine/Bip001 Spine1/Bip001 Spine2/Bip001
      R Clavicle/Bip001 R UpperArm/Bip001 R Forearm/Bip001 R Hand/Bip001 R Finger1/Bip001
      R Finger11
    m_Weight: 0
  - m_Path: Dummy001/Bip001/Bip001 Pelvis/Bip001 Spine/Bip001 Spine1/Bip001 Spine2/Bip001
      R Clavicle/Bip001 R UpperArm/Bip001 R Forearm/Bip001 R Hand/Bip001 R Finger2
    m_Weight: 0
  - m_Path: Dummy001/Bip001/Bip001 Pelvis/Bip001 Spine/Bip001 Spine1/Bip001 Spine2/Bip001
      R Clavicle/Bip001 R UpperArm/Bip001 R Forearm/Bip001 R Hand/Bip001 R Finger2/Bip001
      R Finger21
    m_Weight: 0
  - m_Path: Mechanoid
    m_Weight: 0
